[
  {
    "titles":
      [
        {
          "id":160037,
          "title":"Breathless",
          "year":1983,
          "imdb_id":"tt0085276",
          "tmdb_id":1058,
          "tmdb_type":"movie",
          "type":"movie"
        },
        {
          "id":1247225,
          "title":"Spy Cat",
          "year":2018,
          "imdb_id":"tt5746054",
          "tmdb_id":509733,
          "tmdb_type":"movie",
          "type":"movie"
        },
        {
          "id":1410097,
          "title":"The Oath",
          "year":2018,
          "imdb_id":"tt7461200",
          "tmdb_id":520596,
          "tmdb_type":"movie",
          "type":"movie"
        },
        {
          "id":199348,
          "title":"Desierto",
          "year":2015,
          "imdb_id":"tt3147312",
          "tmdb_id":258363,
          "tmdb_type":"movie",
          "type":"movie"
        },
        {
          "id":1415812,
          "title":"The Rewrite",
          "year":2014,
          "imdb_id":"tt2509850",
          "tmdb_id":289727,
          "tmdb_type":"movie",
          "type":"movie"
        }
      ],
    "page":1,
    "total_results":10,
    "total_pages":2},
  {
    "titles":
      [
        {
          "id":1516103,
          "title":"The Secret Garden",
          "year":2020,
          "imdb_id":"tt2702920",
          "tmdb_id":521034,
          "tmdb_type":"movie",
          "type":"movie"
        },
        {
          "id":1590645,
          "title":"The Cave",
          "year":2019,
          "imdb_id":"tt7178226",
          "tmdb_id":621729,
          "tmdb_type":"movie",
          "type":"movie"
        },
        {
          "id":1101923,
          "title":"Did You Hear About the Morgans?",
          "year":2009,
          "imdb_id":"tt1314228",
          "tmdb_id":24438,
          "tmdb_type":"movie",
          "type":"movie"
        },
        {
          "id":1398258,
          "title":"The Hurricane Heist",
          "year":2018,
          "imdb_id":"tt5360952",
          "tmdb_id":430040,
          "tmdb_type":"movie",
          "type":"movie"
        },
        {
          "id":139277,
          "title":"BPM (Beats per Minute)",
          "year":2017,
          "imdb_id":"tt6135348",
          "tmdb_id":451945,
          "tmdb_type":"movie",
          "type":"movie"
        }
      ],
    "page":2,
    "total_results":10,
    "total_pages":2
  }
]
